<svg width="400" height="400" xmlns="http://www.w3.org/2000/svg">
  <circle cx="50" cy="50" r="50" fill="black"/>
<circle cx="350" cy="50" r="50" fill="black"/>
<circle cx="200" cy="200" r="170" fill="black"/>
</svg>